…
sg_total <- pgatour %>% 
  select(`Player Name`, `Avg Distance`, `Average SG Total`)
names(sg_total)[3] <- 'SG'
sg_total$sg_type <- 'Total'


sg_ott_total <- bind_rows(sg_ott, sg_total)
sg_ott_total
```

```
## # A tibble: 4,624 x 4
##    `Player Name`   `Avg Distance`     SG sg_type    
##    <chr>                    <dbl>  <dbl> <chr>      
##  1 Henrik Stenson            292.  0.427 Off the tee
##  2 Ryan Armour               284. -0.012 Off the tee
##  3 Chez Reavie               286.  0.183 Off the tee
##  4 Ryan Moore                289.  0.406 Off the tee
##  5 Brian Stuard              279. -0.227 Off the tee
##  6 Brian Gay                 283. -0.166 Off the tee
##  7 Kyle Stanley              296.  0.378 Off the tee
##  8 Emiliano Grillo           295.  0.364 Off the tee
##  9 Russell Henley            293   0.093 Off the tee
## 10 Jim Furyk                 280. -0.392 Off the tee
## # … with 4,614 more rows
```
…
Above is the code I used in order to tidy my data so that I could manipulate the Money column in the original dataset.
\


```r
earnings <- earnings %>% 
  arrange(desc(player_earnings))

earnings
```

```
## # A tibble: 248 x 18
## # Groups:   Player Name [248]
##    `Player Name` Rounds `Fairway Percen…  Year `Avg Distance`   gir
##    <chr>          <dbl>            <dbl> <dbl>          <dbl> <dbl>
##  1 Matt Kuchar       97             67.9  2010           287.  69.4
##  2 Jim Furyk         76             71.0  2010           276   67.1
##  3 Ernie Els         72             60.2  2010           288.  67.9
##  4 Dustin Johns…     83             56.4  2010           308.  68.0
##  5 Steve Strick…     73             68.5  2010           283.  68.3
##  6 Phil Mickels…     76             52.7  2010           299.  65.1
##  7 Luke Donald       71             62.4  2010           277   65.3
##  8 Paul Casey        64             61.3  2010           294.  68.7
##  9 Justin Rose       78             65.2  2010           288.  66.3
## 10 Hunter Mahan      85             67.9  2010           292.  68.6
## # … with 238 more rows, and 12 more variables: `Average Putts` <dbl>, `Average
## #   Scrambling` <dbl>, `Average Score` <dbl>, Points <dbl>, Wins <dbl>, `Top
## #   10` <dbl>, `Average SG Putts` <dbl>, `Average SG Total` <dbl>,
## #   `SG:OTT` <dbl>, `SG:APR` <dbl>, `SG:ARG` <dbl>, player_earnings <dbl>
```

```r
earnings$ranking <- rank(-earnings$player_earnings)
earnings
```

```
## # A tibble: 248 x 19
## # Groups:   Player Name [248]
##    `Player Name` Rounds `Fairway Percen…  Year `Avg Distance`   gir
##    <chr>          <dbl>            <dbl> <dbl>          <dbl> <dbl>
##  1 Matt Kuchar       97             67.9  2010           287.  69.4
##  2 Jim Furyk         76             71.0  2010           276   67.1
##  3 Ernie Els         72             60.2  2010           288.  67.9
##  4 Dustin Johns…     83             56.4  2010           308.  68.0
##  5 Steve Strick…     73             68.5  2010           283.  68.3
##  6 Phil Mickels…     76             52.7  2010           299.  65.1
##  7 Luke Donald       71             62.4  2010           277   65.3
##  8 Paul Casey        64             61.3  2010           294.  68.7
##  9 Justin Rose       78             65.2  2010           288.  66.3
## 10 Hunter Mahan      85             67.9  2010           292.  68.6
## # … with 238 more rows, and 13 more variables: `Average Putts` <dbl>, `Average
## #   Scrambling` <dbl>, `Average Score` <dbl>, Points <dbl>, Wins <dbl>, `Top
## #   10` <dbl>, `Average SG Putts` <dbl>, `Average SG Total` <dbl>,
## #   `SG:OTT` <dbl>, `SG:APR` <dbl>, `SG:ARG` <dbl>, player_earnings <dbl>,
## #   ranking <dbl>
```
…
bottom25perc <- earnings %>% 
  filter(ranking >= top25)

bottom25perc$Category <- 'Rest of the Field'
top25_perc$Category <- 'Top 25%'

together <- bind_rows(top25_perc, bottom25perc)

together
```

```
## # A tibble: 249 x 20
## # Groups:   Player Name [248]
##    `Player Name` Rounds `Fairway Percen…  Year `Avg Distance`   gir
##    <chr>          <dbl>            <dbl> <dbl>          <dbl> <dbl>
##  1 Matt Kuchar       97             67.9  2010           287.  69.4
##  2 Jim Furyk         76             71.0  2010           276   67.1
##  3 Ernie Els         72             60.2  2010           288.  67.9
##  4 Dustin Johns…     83             56.4  2010           308.  68.0
##  5 Steve Strick…     73             68.5  2010           283.  68.3
##  6 Phil Mickels…     76             52.7  2010           299.  65.1
##  7 Luke Donald       71             62.4  2010           277   65.3
##  8 Paul Casey        64             61.3  2010           294.  68.7
##  9 Justin Rose       78             65.2  2010           288.  66.3
## 10 Hunter Mahan      85             67.9  2010           292.  68.6
## # … with 239 more rows, and 14 more variables: `Average Putts` <dbl>, `Average
## #   Scrambling` <dbl>, `Average Score` <dbl>, Points <dbl>, Wins <dbl>, `Top
## #   10` <dbl>, `Average SG Putts` <dbl>, `Average SG Total` <dbl>,
## #   `SG:OTT` <dbl>, `SG:APR` <dbl>, `SG:ARG` <dbl>, player_earnings <dbl>,
## #   ranking <dbl>, Category <chr>
```
…
