…
```r
data_dta3 <- data_dta %>% 
  separate(contest_period, into = c("Month/Month", "Year_end"), sep = -4) %>% 
  group_by(Year_end, variable) %>% 
  summarise(Average = mean(value, na.rm = TRUE))

data_dta3
```

```
## # A tibble: 27 x 3
## # Groups:   Year_end [9]
##    Year_end variable Average
##    <chr>    <chr>      <dbl>
##  1 1990     DARTS     -12.3 
##  2 1990     DJIA       -4.01
##  3 1990     PROS       -8.53
##  4 1991     DARTS      19.0 
##  5 1991     DJIA        8.36
##  6 1991     PROS       22.0 
##  7 1992     DARTS       2.48
##  8 1992     DJIA        4.19
##  9 1992     PROS        6.61
## 10 1993     DARTS      -1.86
## # … with 17 more rows
```
…
## Tidy Data & Saving RDS

```r
data_dta4 <- data_dta2 %>% 
  separate("Month/Month", into = c("month_begin", "month_end"), sep = "-")

data_dta4
```

```
## # A tibble: 300 x 5
##    month_begin   month_end Year_end variable value
##    <chr>         <chr>     <chr>    <chr>    <dbl>
##  1 January       June      1990     PROS      12.7
##  2 February      July      1990     PROS      26.4
##  3 March         August    1990     PROS       2.5
##  4 April         September 1990     PROS     -20  
##  5 May           October   1990     PROS     -37.8
##  6 June          November  1990     PROS     -33.3
##  7 July          December  1990     PROS     -10.2
##  8 August1990    January   1991     PROS     -20.3
##  9 September1990 February  1991     PROS      38.9
## 10 October1990   March     1991     PROS      20.2
## # … with 290 more rows
```
…
