…
```r
new_df <- finance_df %>% 
  filter(year >= 1925 & country != 'NA') %>% 
  group_by(year, continent) %>% 
  summarise(avg_cont = mean(child_mort, na.rm = TRUE))

new_df
```

```
## # A tibble: 546 x 3
## # Groups:   year [91]
##     year continent avg_cont
##    <int> <chr>        <dbl>
##  1  1925 Africa        410.
##  2  1925 Americas      341.
##  3  1925 Asia          392.
##  4  1925 Europe        188.
##  5  1925 Oceania       296.
##  6  1925 <NA>          369.
##  7  1926 Africa        409.
##  8  1926 Americas      340.
##  9  1926 Asia          389.
## 10  1926 Europe        186.
## # … with 536 more rows
```
…
