…
```
## ── Conflicts ───────────────────────────────────────────────────── tidyverse_conflicts() ──
## x dplyr::filter() masks stats::filter()
## x dplyr::lag()    masks stats::lag()
```

```r
library(ggplot2)

df_flights <- nycflights13::flights
df_flights
```

```
## # A tibble: 336,776 x 19
##     year month   day dep_time sched_dep_time dep_delay arr_time sched_arr_time
##    <int> <int> <int>    <int>          <int>     <dbl>    <int>          <int>
##  1  2013     1     1      517            515         2      830            819
##  2  2013     1     1      533            529         4      850            830
##  3  2013     1     1      542            540         2      923            850
##  4  2013     1     1      544            545        -1     1004           1022
##  5  2013     1     1      554            600        -6      812            837
##  6  2013     1     1      554            558        -4      740            728
##  7  2013     1     1      555            600        -5      913            854
##  8  2013     1     1      557            600        -3      709            723
##  9  2013     1     1      557            600        -3      838            846
## 10  2013     1     1      558            600        -2      753            745
## # … with 336,766 more rows, and 11 more variables: arr_delay <dbl>,
## #   carrier <chr>, flight <int>, tailnum <chr>, origin <chr>, dest <chr>,
## #   air_time <dbl>, distance <dbl>, hour <dbl>, minute <dbl>, time_hour <dttm>
```
…
```r
q3 <- df_flights %>% 
  filter(dest != "LGA") %>% 
  group_by(dest) %>% 
  summarise(avg_arrival_del = mean(arr_delay, na.rm = TRUE)) %>% 
  arrange(avg_arrival_del)

q3
```

```
## # A tibble: 104 x 2
##    dest  avg_arrival_del
##    <chr>           <dbl>
##  1 LEX          -22     
##  2 PSP          -12.7   
##  3 SNA           -7.87  
##  4 STT           -3.84  
##  5 ANC           -2.5   
##  6 HNL           -1.37  
##  7 SEA           -1.10  
##  8 MVY           -0.286 
##  9 LGB           -0.0620
## 10 SLC            0.176 
## # … with 94 more rows
```
…
