…
```
## See spec(...) for full column specifications.
```

```r
mlb_elo
```

```
## # A tibble: 220,908 x 26
##    date       season neutral playoff team1 team2 elo1_pre elo2_pre elo_prob1
##    <date>      <dbl>   <dbl> <chr>   <chr> <chr>    <dbl>    <dbl>     <dbl>
##  1 2020-09-27   2020       0 <NA>    STL   MIL      1530.    1503.     0.573
##  2 2020-09-27   2020       0 <NA>    TBD   PHI      1553.    1504.     0.604
##  3 2020-09-27   2020       0 <NA>    OAK   SEA      1556.    1476.     0.645
##  4 2020-09-27   2020       0 <NA>    MIN   CIN      1533.    1482.     0.607
##  5 2020-09-27   2020       0 <NA>    LAD   ANA      1588.    1474.     0.689
##  6 2020-09-27   2020       0 <NA>    CLE   PIT      1535.    1455.     0.645
##  7 2020-09-27   2020       0 <NA>    ATL   BOS      1541.    1487.     0.610
##  8 2020-09-27   2020       0 <NA>    ARI   COL      1488.    1473.     0.556
##  9 2020-09-27   2020       0 <NA>    TOR   BAL      1507.    1471.     0.586
## 10 2020-09-27   2020       0 <NA>    WSN   NYM      1530.    1512.     0.561
## # … with 220,898 more rows, and 17 more variables: elo_prob2 <dbl>,
## #   elo1_post <dbl>, elo2_post <dbl>, rating1_pre <dbl>, rating2_pre <dbl>,
## #   pitcher1 <chr>, pitcher2 <chr>, pitcher1_rgs <dbl>, pitcher2_rgs <dbl>,
## #   pitcher1_adj <dbl>, pitcher2_adj <dbl>, rating_prob1 <dbl>,
## #   rating_prob2 <dbl>, rating1_post <dbl>, rating2_post <dbl>, score1 <dbl>,
## #   score2 <dbl>
```
…
