…
xlsx1 <- tempfile()
download("https://raw.githubusercontent.com/WJC-Data-Science/DTS350/master/Height.xlsx", xlsx1, mode = 'wb')

ww_df <- read_xlsx(xlsx1, skip = 2)
ww_df
```

```
## # A tibble: 306 x 203
##     Code `Continent, Reg… `1800` `1801` `1802` `1803` `1804` `1805` `1806`
##    <dbl> <chr>            <lgl>  <lgl>  <lgl>  <lgl>  <lgl>  <lgl>  <lgl> 
##  1   150 Europe           NA     NA     NA     NA     NA     NA     NA    
##  2   155 Western Europe   NA     NA     NA     NA     NA     NA     NA    
##  3    40 Austria          NA     NA     NA     NA     NA     NA     NA    
##  4    56 Belgium          NA     NA     NA     NA     NA     NA     NA    
##  5   280 Federal Republi… NA     NA     NA     NA     NA     NA     NA    
##  6   250 France           NA     NA     NA     NA     NA     NA     NA    
##  7   278 German Democrat… NA     NA     NA     NA     NA     NA     NA    
##  8   276 Germany          NA     NA     NA     NA     NA     NA     NA    
##  9   438 Liechtenstein    NA     NA     NA     NA     NA     NA     NA    
## 10   442 Luxembourg       NA     NA     NA     NA     NA     NA     NA    
## # … with 296 more rows, and 194 more variables: `1807` <lgl>, `1808` <lgl>,
## #   `1809` <lgl>, `1810` <dbl>, `1811` <lgl>, `1812` <lgl>, `1813` <lgl>,
## #   `1814` <lgl>, `1815` <lgl>, `1816` <lgl>, `1817` <lgl>, `1818` <lgl>,
## #   `1819` <lgl>, `1820` <dbl>, `1821` <lgl>, `1822` <lgl>, `1823` <lgl>,
## #   `1824` <lgl>, `1825` <lgl>, `1826` <lgl>, `1827` <lgl>, `1828` <lgl>,
## #   `1829` <lgl>, `1830` <dbl>, `1831` <lgl>, `1832` <lgl>, `1833` <lgl>,
## #   `1834` <lgl>, `1835` <lgl>, `1836` <lgl>, `1837` <lgl>, `1838` <lgl>,
## #   `1839` <lgl>, `1840` <dbl>, `1841` <lgl>, `1842` <lgl>, `1843` <lgl>,
## #   `1844` <lgl>, `1845` <lgl>, `1846` <lgl>, `1847` <lgl>, `1848` <lgl>,
…
```r
view(ww_df)

tidy_ww <- ww_df %>% 
  pivot_longer(c(`1800`:`2011`), names_to = 'Year_Real', values_to = 'height.cm')

tidy_ww
```

```
## # A tibble: 61,506 x 4
##     Code `Continent, Region, Country` Year_Real height.cm
##    <dbl> <chr>                        <chr>         <dbl>
##  1   150 Europe                       1800             NA
##  2   150 Europe                       1801             NA
##  3   150 Europe                       1802             NA
##  4   150 Europe                       1803             NA
##  5   150 Europe                       1804             NA
##  6   150 Europe                       1805             NA
##  7   150 Europe                       1806             NA
##  8   150 Europe                       1807             NA
##  9   150 Europe                       1808             NA
## 10   150 Europe                       1809             NA
## # … with 61,496 more rows
```

```r
tidy_ww2 <- tidy_ww %>%
  separate(Year_Real, into = c("century", "decade", "year"), sep = c(-2,-1), remove = FALSE) 
tidy_ww2
```

```
## # A tibble: 61,506 x 7
##     Code `Continent, Region, Country` Year_Real century decade year  height.cm
##    <dbl> <chr>                        <chr>     <chr>   <chr>  <chr>     <dbl>
##  1   150 Europe                       1800      18      0      0            NA
##  2   150 Europe                       1801      18      0      1            NA
##  3   150 Europe                       1802      18      0      2            NA
##  4   150 Europe                       1803      18      0      3            NA
##  5   150 Europe                       1804      18      0      4            NA
##  6   150 Europe                       1805      18      0      5            NA
##  7   150 Europe                       1806      18      0      6            NA
##  8   150 Europe                       1807      18      0      7            NA
##  9   150 Europe                       1808      18      0      8            NA
## 10   150 Europe                       1809      18      0      9            NA
## # … with 61,496 more rows
```

```r
tidy_ww2$Year_Real <- as.numeric(tidy_ww2$Year_Real)
tidy_ww2$century <- as.numeric(tidy_ww2$century)
tidy_ww2$decade <- as.numeric(tidy_ww2$decade)
tidy_ww2$year <- as.numeric(tidy_ww2$year)

ww_inches <- tidy_ww2 %>% 
  mutate(height.in = conv_unit(height.cm, 'cm', 'inch'))

ww_inches
```

```
## # A tibble: 61,506 x 8
##     Code `Continent, Region,… Year_Real century decade  year height.cm height.in
##    <dbl> <chr>                    <dbl>   <dbl>  <dbl> <dbl>     <dbl>     <dbl>
##  1   150 Europe                    1800      18      0     0        NA        NA
##  2   150 Europe                    1801      18      0     1        NA        NA
##  3   150 Europe                    1802      18      0     2        NA        NA
##  4   150 Europe                    1803      18      0     3        NA        NA
##  5   150 Europe                    1804      18      0     4        NA        NA
##  6   150 Europe                    1805      18      0     5        NA        NA
##  7   150 Europe                    1806      18      0     6        NA        NA
##  8   150 Europe                    1807      18      0     7        NA        NA
##  9   150 Europe                    1808      18      0     8        NA        NA
## 10   150 Europe                    1809      18      0     9        NA        NA
## # … with 61,496 more rows
```

```r
ww_inches2 <- na.omit(ww_inches)

ww_inches2
```

```
## # A tibble: 1,311 x 8
##     Code `Continent, Region,… Year_Real century decade  year height.cm height.in
##    <dbl> <chr>                    <dbl>   <dbl>  <dbl> <dbl>     <dbl>     <dbl>
##  1    40 Austria                   1820      18      2     0      164.      64.4
##  2    40 Austria                   1830      18      3     0      163.      64.3
##  3    40 Austria                   1840      18      4     0      165.      64.9
##  4    40 Austria                   1850      18      5     0      166.      65.3
##  5    40 Austria                   1860      18      6     0      166.      65.5
##  6    40 Austria                   1870      18      7     0      167.      65.8
##  7    40 Austria                   1880      18      8     0      168.      66.0
##  8    40 Austria                   1890      18      9     0      168.      66.3
##  9    40 Austria                   1900      19      0     0      169.      66.5
## 10    40 Austria                   1910      19      1     0      169.      66.5
## # … with 1,301 more rows
```
…
```r
###
height_dta2 <- read_dta("https://github.com/WJC-Data-Science/DTS350/raw/master/germanprison.dta")
height_dta2
```

```
## # A tibble: 477 x 4
##      age  bdec co    height
##    <dbl> <dbl> <chr>  <dbl>
##  1    22  1850 de       156
##  2    26  1850 de       168
##  3    26  1850 de       161
##  4    25  1850 de       159
##  5    26  1850 de       175
##  6    24  1850 de       173
##  7    24  1850 de       173
##  8    24  1850 de       172
##  9    24  1850 de       161
## 10    21  1850 de       175
## # … with 467 more rows
```

```r
height_dta <- read_dta("https://raw.githubusercontent.com/WJC-Data-Science/DTS350/master/germanconscr.dta")
height_dta
```

```
## # A tibble: 1,382 x 5
##    gebger      bdec height   age co   
##    <chr>      <dbl>  <dbl> <dbl> <chr>
##  1 brueckenau  1850   170.    21 de-se
##  2 brueckenau  1850   156.    21 de-se
##  3 brueckenau  1850   172.    21 de-se
##  4 brueckenau  1850   168.    21 de-se
##  5 brueckenau  1850   167.    21 de-se
##  6 brueckenau  1850   160.    21 de-se
##  7 brueckenau  1850   161.    21 de-se
##  8 brueckenau  1850   162.    21 de-se
##  9 brueckenau  1850   162.    21 de-se
## 10 brueckenau  1850   170.    21 de-se
## # … with 1,372 more rows
```
…
```r
height_csv
```

```
## # A tibble: 1,192 x 6
##     earn height sex       ed   age race    
##    <dbl>  <dbl> <chr>  <dbl> <dbl> <chr>   
##  1 50000   74.4 male      16    45 white   
##  2 60000   65.5 female    16    58 white   
##  3 30000   63.6 female    16    29 white   
##  4 50000   63.1 female    16    91 other   
##  5 51000   63.4 female    17    39 white   
##  6  9000   64.4 female    15    26 white   
##  7 29000   61.7 female    12    49 white   
##  8 32000   72.7 male      17    46 white   
##  9  2000   72.0 male      15    21 hispanic
## 10 27000   72.2 male      12    26 white   
## # … with 1,182 more rows
```

```r
sav1 <- tempfile()
download("https://www.ssc.wisc.edu/nsfh/wave3/NSFH3%20Apr%202005%20release/main05022005.sav", sav1, mode = 'wb')
height_sav <- read_sav(sav1)
height_sav  
```

```
## # A tibble: 7,277 x 2,317
##    CASE  TYPE  CASEID CASENUM     DOBM  DOBY    RT1A1    RT1A2    RT1A3    RT1B1
##    <chr> <chr> <chr>    <dbl> <dbl+lb> <dbl> <dbl+lb> <dbl+lb> <dbl+lb> <dbl+lb>
##  1 00008 S     00008S       8 10 [OCT…    15  5       NA       NA        3      
##  2 00058 R     00058R      58  2 [FEB…    40  3        0 [NON…  1        2      
##  3 00058 S     00058S      58  2 [FEB…    40  0 [NON… NA       NA        0 [NON…
##  4 00079 S     00079S      79 11 [NOV…    12  7       NA       NA        0 [NON…
##  5 00082 S     00082S      82  7 [JUL…    61  4       NA        1        4      
##  6 00120 R     00120R     120 10 [OCT…    54 14        0 [NON…  0 [NON…  7      
##  7 00120 S     00120S     120 11 [NOV…    54  1       10        2        0 [NON…
##  8 00133 R     00133R     133 10 [OCT…    51 18        0 [NON…  3       18      
##  9 00146 R     00146R     146  4 [APR…    52  1        0 [NON… NA        2      
## 10 00146 S     00146S     146  4 [APR…    51  0 [NON… 20       NA        0 [NON…
## # … with 7,267 more rows, and 2,307 more variables: RT1B2 <dbl+lbl>,
## #   RT1B3 <dbl+lbl>, RT1C1 <dbl+lbl>, RT1C2 <dbl+lbl>, RT1C3 <dbl+lbl>,
## #   RT1D1 <dbl+lbl>, RT1D2 <dbl+lbl>, RT1D3 <dbl+lbl>, RT1E1 <dbl+lbl>,
## #   RT1E2 <dbl+lbl>, RT1E3 <dbl+lbl>, RT1F1 <dbl+lbl>, RT1F2 <dbl+lbl>,
## #   RT1F3 <dbl+lbl>, RT1G1 <dbl+lbl>, RT1G2 <dbl+lbl>, RT1G3 <dbl+lbl>,
## #   RT1H1 <dbl+lbl>, RT1H2 <dbl+lbl>, RT1H3 <dbl+lbl>, RT1I1 <dbl+lbl>,
## #   RT1I2 <dbl+lbl>, RT1I3 <dbl+lbl>, RT204 <dbl+lbl>, RE1 <dbl+lbl>,
## #   RE3 <dbl>, RE4 <dbl>, RT205A <dbl+lbl>, RT205B <dbl+lbl>, RT205C <dbl+lbl>,
## #   RT205D <dbl+lbl>, RT205E <dbl+lbl>, RT205F <dbl+lbl>, RT205G <dbl>,
…
```r
## Clean DTA

dta1 <- height_dta %>% 
  select(bdec, height)

dta1
```

```
## # A tibble: 1,382 x 2
##     bdec height
##    <dbl>  <dbl>
##  1  1850   170.
##  2  1850   156.
##  3  1850   172.
##  4  1850   168.
##  5  1850   167.
##  6  1850   160.
##  7  1850   161.
##  8  1850   162.
##  9  1850   162.
## 10  1850   170.
## # … with 1,372 more rows
```

```r
dta2 <- dta1 %>% 
  rename(birth_year = bdec) %>% 
  rename(height.cm = height)

dta2$height.in <- conv_unit(dta2$height.cm, 'cm', 'inch')

dta2 <- add_column(dta2,study = "GermanConscr")

dta2
```

```
## # A tibble: 1,382 x 4
##    birth_year height.cm height.in study       
##         <dbl>     <dbl>     <dbl> <chr>       
##  1       1850      170.      66.8 GermanConscr
##  2       1850      156.      61.6 GermanConscr
##  3       1850      172.      67.9 GermanConscr
##  4       1850      168.      66.2 GermanConscr
##  5       1850      167.      65.6 GermanConscr
##  6       1850      160.      63.1 GermanConscr
##  7       1850      161.      63.2 GermanConscr
##  8       1850      162.      63.9 GermanConscr
##  9       1850      162.      63.7 GermanConscr
## 10       1850      170.      67.0 GermanConscr
## # … with 1,372 more rows
```

```r
## Clean DTA2

df1 <- height_dta2 %>% 
  select(bdec, height)
df1
```

```
## # A tibble: 477 x 2
##     bdec height
##    <dbl>  <dbl>
##  1  1850    156
##  2  1850    168
##  3  1850    161
##  4  1850    159
##  5  1850    175
##  6  1850    173
##  7  1850    173
##  8  1850    172
##  9  1850    161
## 10  1850    175
## # … with 467 more rows
```
```r
df2 <- df1 %>% 
  rename(birth_year = bdec) %>% 
  rename(height.cm = height)


df2$height.in <- conv_unit(df2$height.cm, 'cm', 'inch')

df2 <- add_column(df2,study = "GermanPrison")

df2
```

```
## # A tibble: 477 x 4
##    birth_year height.cm height.in study       
##         <dbl>     <dbl>     <dbl> <chr>       
##  1       1850       156      61.4 GermanPrison
##  2       1850       168      66.1 GermanPrison
##  3       1850       161      63.4 GermanPrison
##  4       1850       159      62.6 GermanPrison
##  5       1850       175      68.9 GermanPrison
##  6       1850       173      68.1 GermanPrison
##  7       1850       173      68.1 GermanPrison
##  8       1850       172      67.7 GermanPrison
##  9       1850       161      63.4 GermanPrison
## 10       1850       175      68.9 GermanPrison
## # … with 467 more rows
```
…
```r
## Clean CSV
clean_csv <- height_csv %>% 
  select(height)

clean_csv
```

```
## # A tibble: 1,192 x 1
##    height
##     <dbl>
##  1   74.4
##  2   65.5
##  3   63.6
##  4   63.1
##  5   63.4
##  6   64.4
##  7   61.7
##  8   72.7
##  9   72.0
## 10   72.2
## # … with 1,182 more rows
```
…
```r
clean_csv2$height.cm <- conv_unit(clean_csv2$height.in, 'inch','cm')

clean_csv2
```

```
## # A tibble: 1,192 x 2
##    height.in height.cm
##        <dbl>     <dbl>
##  1      74.4      189.
##  2      65.5      166.
##  3      63.6      162.
##  4      63.1      160.
##  5      63.4      161.
##  6      64.4      164.
##  7      61.7      157.
##  8      72.7      185.
##  9      72.0      183.
## 10      72.2      183.
## # … with 1,182 more rows
```
…
```r
clean_csv2 <- clean_csv2 %>% 
  select(birth_year, height.cm, height.in, study)

clean_csv2
```

```
## # A tibble: 1,192 x 4
##    birth_year height.cm height.in study
##         <dbl>     <dbl>     <dbl> <chr>
##  1       1950      189.      74.4 BLS  
##  2       1950      166.      65.5 BLS  
##  3       1950      162.      63.6 BLS  
##  4       1950      160.      63.1 BLS  
##  5       1950      161.      63.4 BLS  
##  6       1950      164.      64.4 BLS  
##  7       1950      157.      61.7 BLS  
##  8       1950      185.      72.7 BLS  
##  9       1950      183.      72.0 BLS  
## 10       1950      183.      72.2 BLS  
## # … with 1,182 more rows
```

```r
## Clean SAV
clean_sav <- height_sav %>% 
  select(DOBY, RT216F, RT216I)

clean_sav
```

```
## # A tibble: 7,277 x 3
##         DOBY RT216F RT216I
##    <dbl+lbl>  <dbl>  <dbl>
##  1        15      5     35
##  2        40      5      0
##  3        40      5      7
##  4        12      5      5
##  5        61      5      6
##  6        54      5      2
##  7        54      5     11
##  8        51      5      4
##  9        52      5      7
## 10        51      5      9
## # … with 7,267 more rows
```

```r
clean_sav2 <- clean_sav %>% 
  mutate(height.in = ((RT216F*12) + RT216I))

clean_sav2
```

```
## # A tibble: 7,277 x 4
##         DOBY RT216F RT216I height.in
##    <dbl+lbl>  <dbl>  <dbl>     <dbl>
##  1        15      5     35        95
##  2        40      5      0        60
##  3        40      5      7        67
##  4        12      5      5        65
##  5        61      5      6        66
##  6        54      5      2        62
##  7        54      5     11        71
##  8        51      5      4        64
##  9        52      5      7        67
## 10        51      5      9        69
## # … with 7,267 more rows
```

```r
clean_sav3 <- clean_sav2 %>% 
  mutate(birth_year = 1900 + DOBY)

clean_sav3
```

```
## # A tibble: 7,277 x 5
##         DOBY RT216F RT216I height.in birth_year
##    <dbl+lbl>  <dbl>  <dbl>     <dbl>  <dbl+lbl>
##  1        15      5     35        95       1915
##  2        40      5      0        60       1940
##  3        40      5      7        67       1940
##  4        12      5      5        65       1912
##  5        61      5      6        66       1961
##  6        54      5      2        62       1954
##  7        54      5     11        71       1954
##  8        51      5      4        64       1951
##  9        52      5      7        67       1952
## 10        51      5      9        69       1951
## # … with 7,267 more rows
```

```r
clean_sav3 <- add_column(clean_sav3, study = 'Wisconsin')

clean_sav3
```

```
## # A tibble: 7,277 x 6
##         DOBY RT216F RT216I height.in birth_year study    
##    <dbl+lbl>  <dbl>  <dbl>     <dbl>  <dbl+lbl> <chr>    
##  1        15      5     35        95       1915 Wisconsin
##  2        40      5      0        60       1940 Wisconsin
##  3        40      5      7        67       1940 Wisconsin
##  4        12      5      5        65       1912 Wisconsin
##  5        61      5      6        66       1961 Wisconsin
##  6        54      5      2        62       1954 Wisconsin
##  7        54      5     11        71       1954 Wisconsin
##  8        51      5      4        64       1951 Wisconsin
##  9        52      5      7        67       1952 Wisconsin
## 10        51      5      9        69       1951 Wisconsin
## # … with 7,267 more rows
```

```r
clean_sav3$height.cm <- conv_unit(clean_sav3$height.in, 'inch', 'cm')

clean_sav3
```

```
## # A tibble: 7,277 x 7
##         DOBY RT216F RT216I height.in birth_year study     height.cm
##    <dbl+lbl>  <dbl>  <dbl>     <dbl>  <dbl+lbl> <chr>         <dbl>
##  1        15      5     35        95       1915 Wisconsin      241.
##  2        40      5      0        60       1940 Wisconsin      152.
##  3        40      5      7        67       1940 Wisconsin      170.
##  4        12      5      5        65       1912 Wisconsin      165.
##  5        61      5      6        66       1961 Wisconsin      168.
##  6        54      5      2        62       1954 Wisconsin      157.
##  7        54      5     11        71       1954 Wisconsin      180.
##  8        51      5      4        64       1951 Wisconsin      163.
##  9        52      5      7        67       1952 Wisconsin      170.
## 10        51      5      9        69       1951 Wisconsin      175.
## # … with 7,267 more rows
```

```r
clean_sav4 <- clean_sav3 %>% 
  select(birth_year, height.in, height.cm, study)

clean_sav4
```

```
## # A tibble: 7,277 x 4
##    birth_year height.in height.cm study    
##     <dbl+lbl>     <dbl>     <dbl> <chr>    
##  1       1915        95      241. Wisconsin
##  2       1940        60      152. Wisconsin
##  3       1940        67      170. Wisconsin
##  4       1912        65      165. Wisconsin
##  5       1961        66      168. Wisconsin
##  6       1954        62      157. Wisconsin
##  7       1954        71      180. Wisconsin
##  8       1951        64      163. Wisconsin
##  9       1952        67      170. Wisconsin
## 10       1951        69      175. Wisconsin
## # … with 7,267 more rows
```
…
```r
height_df <- bind_rows(dta2, df2, clean_dbf2, clean_csv2, clean_sav4)
```

```
## Warning in bind_rows_(x, .id): Vectorizing 'haven_labelled' elements may not
## preserve their attributes
```

```r
height_df  
```

```
## # A tibble: 28,575 x 4
##    birth_year height.cm height.in study       
##         <dbl>     <dbl>     <dbl> <chr>       
##  1       1850      170.      66.8 GermanConscr
##  2       1850      156.      61.6 GermanConscr
##  3       1850      172.      67.9 GermanConscr
##  4       1850      168.      66.2 GermanConscr
##  5       1850      167.      65.6 GermanConscr
##  6       1850      160.      63.1 GermanConscr
##  7       1850      161.      63.2 GermanConscr
##  8       1850      162.      63.9 GermanConscr
##  9       1850      162.      63.7 GermanConscr
## 10       1850      170.      67.0 GermanConscr
## # … with 28,565 more rows
```
…
