…
```r
mydata <- filter(gapminder, country != "Kuwait")

mydata
```

```
## # A tibble: 1,692 x 6
##    country     continent  year lifeExp      pop gdpPercap
##    <fct>       <fct>     <int>   <dbl>    <int>     <dbl>
##  1 Afghanistan Asia       1952    28.8  8425333      779.
##  2 Afghanistan Asia       1957    30.3  9240934      821.
##  3 Afghanistan Asia       1962    32.0 10267083      853.
##  4 Afghanistan Asia       1967    34.0 11537966      836.
##  5 Afghanistan Asia       1972    36.1 13079460      740.
##  6 Afghanistan Asia       1977    38.4 14880372      786.
##  7 Afghanistan Asia       1982    39.9 12881816      978.
##  8 Afghanistan Asia       1987    40.8 13867957      852.
##  9 Afghanistan Asia       1992    41.7 16317921      649.
## 10 Afghanistan Asia       1997    41.8 22227415      635.
## # … with 1,682 more rows
```
…
## Warning in summarise_impl(.data, dots, environment(), caller_env()): integer
## overflow - use sum(as.numeric(.))

## Warning in summarise_impl(.data, dots, environment(), caller_env()): integer
## overflow - use sum(as.numeric(.))
```

```r
graph2_data
```

```
## # A tibble: 60 x 4
## # Groups:   continent [5]
##    continent  year   gdp       sum
##    <fct>     <int> <dbl>     <int>
##  1 Africa     1952 1311. 237640501
##  2 Africa     1957 1445. 264837738
##  3 Africa     1962 1541. 296516865
##  4 Africa     1967 1775. 335289489
##  5 Africa     1972 2063. 379879541
##  6 Africa     1977 2245. 433061021
##  7 Africa     1982 2295. 499348587
##  8 Africa     1987 2181. 574834110
##  9 Africa     1992 2072. 659081517
## 10 Africa     1997 2099. 743832984
## # … with 50 more rows
```
…
