…
  
q4
```

```
## # A tibble: 53,940 x 3
##    price carat bin1 
##    <int> <dbl> <chr>
##  1   326 0.23  <2500
##  2   326 0.21  <2500
##  3   327 0.23  <2500
##  4   334 0.290 <2500
##  5   335 0.31  <2500
##  6   336 0.24  <2500
##  7   336 0.24  <2500
##  8   337 0.26  <2500
##  9   337 0.22  <2500
## 10   338 0.23  <2500
## # … with 53,930 more rows
```
…
q5
```

```
## # A tibble: 28,245 x 3
##    price carat type 
##    <int> <dbl> <chr>
##  1   326 0.23  <25  
##  2   326 0.21  <25  
##  3   327 0.23  <25  
##  4   334 0.290 <25  
##  5   335 0.31  <25  
##  6   336 0.24  <25  
##  7   336 0.24  <25  
##  8   337 0.26  <25  
##  9   337 0.22  <25  
## 10   338 0.23  <25  
## # … with 28,235 more rows
```
…
